{"avatar_url": "https://avatars0.githubusercontent.com/u/15850589?v=4",
 "bio": "None",
 "password": "-1051972364",
 "blog": "https://user.github.io/",
 "collaborators": 0,
 "company": "None",
 "created_at": "2015-11-14T20:32:44Z",
 "disk_usage": 53691,
 "email": "first.last@gmail.com",
 "events_url": "https://api.github.com/users/user/events{/privacy}",
 "followers": 49,
 "followers_url": "https://api.github.com/users/user/followers",
 "following": 27,
 "following_url": "https://api.github.com/users/user/following{/other_user}",
 "gists_url": "https://api.github.com/users/user/gists{/gist_id}",
 "gravatar_id": "",
 "hireable": "None",
 "html_url": "https://github.com/user",
 "id": 15850513,
 "location": "None",
 "login": "user",
 "name": "First Last",
 "organizations_url": "https://api.github.com/users/user/orgs",
 "owned_private_repos": 0,
 "plan": {"collaborators": 0,
  "name": "free",
  "private_repos": 0,
  "space": 976562499},
 "private_gists": 0,
 "public_gists": 2,
 "public_repos": 11,
 "received_events_url": "https://api.github.com/users/user/received_events",
 "repos_url": "https://api.github.com/users/user/repos",
 "site_admin": "False",
 "starred_url": "https://api.github.com/users/user/starred{/owner}{/repo}",
 "subscriptions_url": "https://api.github.com/users/user/subscriptions",
 "total_private_repos": 0,
 "type": "User",
 "updated_at": "2017-09-27T17:27:19Z",
 "url": "https://api.github.com/users/user"}
